0 0 0 0 0 8 5 0 9 0 0 0 0 0 0 0 0 4 6 0 0
0 1 0 0 7 0 0 3 0 0 0 0 0 3 0 0 7 0 0 4 0
9 0 7 5 0 0 6 0 0 0 0 0 4 0 2 9 0 0 8 0 0
2 0 0 0 0 0 4 0 0 0 0 0 1 0 0 0 0 0 7 0 0
0 8 0 0 0 0 0 6 0 0 0 0 0 8 0 0 0 0 0 1 0
0 0 6 0 0 0 0 0 7 0 0 0 0 0 9 0 0 0 0 0 2
0 0 3 0 0 2 8 0 1 3 0 0 0 0 6 0 0 8 3 0 4
0 4 0 0 8 0 0 5 0 0 9 0 0 4 0 0 5 0 0 2 0
0 0 5 9 0 0 0 0 6 0 0 2 3 0 8 2 0 0 0 0 6
0 0 0 0 0 0 0 0 7 0 0 0 0 0 9 0 0 0 0 0 0
0 0 0 0 0 0 0 1 0 0 0 0 0 6 0 0 0 0 0 0 0
0 0 0 0 0 0 9 0 0 0 0 0 1 0 0 0 0 0 0 0 0
1 0 0 0 0 6 2 0 3 6 0 0 9 0 0 0 0 6 8 0 0
0 3 0 0 9 0 0 8 0 0 2 0 0 7 0 0 9 0 0 1 0
7 0 4 8 0 0 5 0 0 0 0 4 2 0 3 7 0 0 6 0 0
8 0 0 0 0 0 7 0 0 0 0 0 5 0 0 0 0 0 4 0 0
0 5 0 0 0 0 0 1 0 0 0 0 0 6 0 0 0 0 0 2 0
0 0 2 0 0 0 0 0 8 0 0 0 0 0 2 0 0 0 0 0 5
0 0 6 0 0 8 3 0 5 0 0 0 0 0 8 0 0 1 9 0 3
0 8 0 0 7 0 0 9 0 0 0 0 0 4 0 0 5 0 0 6 0
0 0 9 2 0 0 0 0 0 0 0 0 3 0 6 8 0 0 0 0 0